…
### Are whites who are killed by guns more likely to die because of suicide or homicide? How does this compare to blacks and hispanics?

``` r
# Would nont have been able to figure out how to put percentages on the graphs without this tutorial:
# https://rkabacoff.github.io/datavis/Bivariate.html

gun_deaths_by_intent_and_race <- gun_deaths %>%
  group_by(race, intent) %>%
  summarize(n = n()) %>% 
  mutate(pct = n/sum(n),
         lbl = scales::percent(pct))
gun_deaths_by_intent_and_race
```

    ## # A tibble: 21 x 5
    ## # Groups:   race [5]
    ##    race                       intent           n     pct lbl   
    ##    <chr>                      <fct>        <int>   <dbl> <chr> 
    ##  1 "Asian/\nPacific Islander" Accidental      12 0.00905 0.90% 
    ##  2 "Asian/\nPacific Islander" Homicide       559 0.422   42.16%
    ##  3 "Asian/\nPacific Islander" Suicide        745 0.562   56.18%
    ##  4 "Asian/\nPacific Islander" Undetermined    10 0.00754 0.75% 
    ##  5 "Black"                    Accidental     328 0.0141  1.41% 
    ##  6 "Black"                    Homicide     19510 0.837   83.75%
    ##  7 "Black"                    Suicide       3332 0.143   14.30%
    ##  8 "Black"                    Undetermined   126 0.00541 0.54% 
    ##  9 "Hispanic"                 Accidental     145 0.0161  1.61% 
    ## 10 "Hispanic"                 Homicide      5634 0.624   62.45%
    ## # … with 11 more rows
…
